{
  "version": 1,
  "projects": {
    "food-inventory": {
      "root": "apps/food-inventory",
      "sourceRoot": "apps/food-inventory/src",
      "projectType": "application",
      "schematics": {},
      "architect": {
        "build": {
          "builder": "@nrwl/web:build",
          "options": {
            "outputPath": "dist/apps/food-inventory",
            "index": "apps/food-inventory/src/index.html",
            "main": "apps/food-inventory/src/main.tsx",
            "polyfills": "apps/food-inventory/src/polyfills.ts",
            "tsConfig": "apps/food-inventory/tsconfig.app.json",
            "assets": [
              "apps/food-inventory/src/favicon.ico",
              "apps/food-inventory/src/assets"
            ],
            "styles": ["apps/food-inventory/src/styles.css"],
            "scripts": [],
            "webpackConfig": "@nrwl/react/plugins/webpack"
          },
          "configurations": {
            "production": {
              "fileReplacements": [
                {
                  "replace": "apps/food-inventory/src/environments/environment.ts",
                  "with": "apps/food-inventory/src/environments/environment.prod.ts"
                }
              ],
              "optimization": true,
              "outputHashing": "all",
              "sourceMap": false,
              "extractCss": true,
              "namedChunks": false,
              "extractLicenses": true,
              "vendorChunk": false,
              "budgets": [
                {
                  "type": "initial",
                  "maximumWarning": "2mb",
                  "maximumError": "5mb"
                }
              ]
            }
          }
        },
        "serve": {
          "builder": "@nrwl/web:dev-server",
          "options": {
            "buildTarget": "food-inventory:build"
          },
          "configurations": {
            "production": {
              "buildTarget": "food-inventory:build:production"
            }
          }
        },
        "lint": {
          "builder": "@nrwl/linter:eslint",
          "options": {
            "lintFilePatterns": ["apps/food-inventory/**/*.{ts,tsx,js,jsx}"]
          }
        },
        "test": {
          "builder": "@nrwl/jest:jest",
          "options": {
            "jestConfig": "apps/food-inventory/jest.config.js",
            "passWithNoTests": true
          }
        }
      }
    },
    "food-inventory-e2e": {
      "root": "apps/food-inventory-e2e",
      "sourceRoot": "apps/food-inventory-e2e/src",
      "projectType": "application",
      "architect": {
        "e2e": {
          "builder": "@nrwl/cypress:cypress",
          "options": {
            "cypressConfig": "apps/food-inventory-e2e/cypress.json",
            "tsConfig": "apps/food-inventory-e2e/tsconfig.e2e.json",
            "devServerTarget": "food-inventory:serve"
          },
          "configurations": {
            "production": {
              "devServerTarget": "food-inventory:serve:production"
            }
          }
        },
        "lint": {
          "builder": "@nrwl/linter:eslint",
          "options": {
            "lintFilePatterns": ["apps/food-inventory-e2e/**/*.{js,ts}"]
          }
        }
      }
    }
  },
  "cli": {
    "defaultCollection": "@nrwl/react"
  },
  "schematics": {
    "@nrwl/react": {
      "application": {
        "style": "css",
        "linter": "eslint",
        "babel": true
      },
      "component": {
        "style": "css"
      },
      "library": {
        "style": "css",
        "linter": "eslint"
      }
    }
  },
  "defaultProject": "food-inventory"
}
